<svg width="25" height="26" viewBox="0 0 25 26" fill="none" xmlns="http://www.w3.org/2000/svg">
<g clip-path="url(#clip0)">
<path d="M18.1764 0H6.7295C3.01886 0 0 3.11233 0 6.93784V18.7391C0 22.5646 3.01886 25.677 6.7295 25.677H18.1764C21.887 25.677 24.9059 22.5646 24.9059 18.7391V6.93784C24.9059 3.11233 21.887 0 18.1764 0ZM22.8937 18.7391C22.8937 21.4208 20.7776 23.6025 18.1764 23.6025H6.7295C4.12834 23.6025 2.01212 21.4208 2.01212 18.7391V6.93784C2.01212 4.25616 4.12829 2.07442 6.7295 2.07442H18.1764C20.7775 2.07442 22.8937 4.25611 22.8937 6.93784V18.7391Z" fill="white"/>
<path d="M18.0269 11.9429C17.8499 10.7118 17.3051 9.59609 16.4515 8.7161C15.598 7.83617 14.5157 7.27448 13.3217 7.09199C12.7781 7.00889 12.2269 7.00889 11.6833 7.09199C10.2076 7.31761 8.90554 8.12212 8.01686 9.35738C7.12818 10.5926 6.75921 12.1108 6.97806 13.632C7.19691 15.1533 7.97726 16.4957 9.17542 17.412C10.1481 18.1557 11.3015 18.5463 12.4907 18.5463C12.7663 18.5463 13.044 18.5254 13.3217 18.4829C14.7973 18.2572 16.0994 17.4527 16.9881 16.2175C17.8768 14.9823 18.2458 13.4642 18.0269 11.9429ZM13.0265 16.4309C12.0826 16.5754 11.1406 16.3319 10.3741 15.7458C9.60763 15.1597 9.10844 14.3009 8.96849 13.3278C8.82849 12.3546 9.06446 11.3834 9.63297 10.5932C10.2015 9.80301 11.0345 9.28837 11.9784 9.14404C12.1523 9.11746 12.3274 9.10417 12.5024 9.10417C12.6775 9.10417 12.8526 9.11746 13.0265 9.14409C14.5943 9.38375 15.804 10.6308 16.0365 12.2472C16.3254 14.2562 14.9752 16.133 13.0265 16.4309Z" fill="white"/>
<path d="M19.4602 5.61442C19.2728 5.42129 19.0135 5.31061 18.7488 5.31061C18.4841 5.31061 18.2247 5.42124 18.0374 5.61442C17.85 5.8076 17.7427 6.0745 17.7427 6.34787C17.7427 6.62124 17.85 6.88814 18.0374 7.08132C18.2247 7.27444 18.4841 7.38513 18.7488 7.38513C19.0135 7.38513 19.2728 7.27449 19.4602 7.08132C19.6475 6.88814 19.7549 6.62078 19.7549 6.34787C19.7549 6.0749 19.6475 5.80755 19.4602 5.61442Z" fill="white"/>
</g>
<defs>
<clipPath id="clip0">
<rect width="24.9059" height="25.677" fill="white"/>
</clipPath>
</defs>
</svg>
