<svg width="30" height="30" viewBox="0 0 30 30" fill="none" xmlns="http://www.w3.org/2000/svg">
<path d="M30 15C30 6.71588 23.2841 0 15 0C6.71588 0 0 6.71588 0 15C0 23.2841 6.71588 30 15 30C23.2841 30 30 23.2841 30 15ZM1.36363 15C1.36363 7.46863 7.46863 1.36363 15 1.36363C22.5314 1.36363 28.6364 7.46863 28.6364 15C28.6364 22.5314 22.5314 28.6364 15 28.6364C7.46863 28.6364 1.36363 22.5314 1.36363 15Z" fill="url(#paint0_linear)"/>
<path d="M15.5137 22.8947V14.9894H18.0966L18.5046 12.3697H15.5137V11.0561C15.5137 10.3725 15.7356 9.72003 16.7071 9.72003H18.6489V7.10526H15.8922C13.5744 7.10526 12.9419 8.64669 12.9419 10.7834V12.3685H11.3516V14.9894H12.9419V22.8947H15.5137Z" fill="url(#paint1_linear)"/>
<defs>
<linearGradient id="paint0_linear" x1="15" y1="0" x2="15" y2="30" gradientUnits="userSpaceOnUse">
<stop stop-color="#4BBDCF"/>
<stop offset="1" stop-color="#007A8D"/>
</linearGradient>
<linearGradient id="paint1_linear" x1="15.0002" y1="7.10526" x2="15.0002" y2="22.8947" gradientUnits="userSpaceOnUse">
<stop stop-color="#4BBDCF"/>
<stop offset="1" stop-color="#007A8D"/>
</linearGradient>
</defs>
</svg>
